id;is_like;review_film_id;registered_user_id
922ece44-503b-11ea-b77f-2e728ce88125;true;87112e94-4b63-11ea-b77f-2e728ce88125;3ea978a2-4b52-11ea-b77f-2e728ce88125
922ecf70-503b-11ea-b77f-2e728ce88125;true;87113074-4b63-11ea-b77f-2e728ce88125;3ea979ce-4b52-11ea-b77f-2e728ce88125
922ed09c-503b-11ea-b77f-2e728ce88125;false;87113254-4b63-11ea-b77f-2e728ce88125;3ea97af0-4b52-11ea-b77f-2e728ce88125
